{
  "login": {
    "token": "ekofjewojfioewjfew"
  },
  "members": [
    {
      "id": 1,
      "name": "aaaaa",
      "email": "tehrthtr"
    },
    {
      "id": 2,
      "name": "aaaaa",
      "email": "45y45y5"
    }
  ]
}